{
    "type": "application",
    "source-directories": [
        "elm",
        "elm-mdc/src"
    ],
    "elm-version": "0.19.1",
    "dependencies": {
        "direct": {
            "NoRedInk/elm-json-decode-pipeline": "1.0.0",
            "debois/elm-dom": "1.3.0",
            "elm/browser": "1.0.1",
            "elm/core": "1.0.2",
            "elm/html": "1.0.0",
            "elm/http": "2.0.0",
            "elm/json": "1.1.3",
            "elm/regex": "1.0.0",
            "elm/svg": "1.0.1",
            "elm/url": "1.0.0",
            "elm-community/list-extra": "8.2.2",
            "krisajenkins/remotedata": "6.0.1",
            "lukewestby/elm-http-builder": "7.0.0"
        },
        "indirect": {
            "elm/bytes": "1.0.8",
            "elm/file": "1.0.5",
            "elm/time": "1.0.0",
            "elm/virtual-dom": "1.0.2"
        }
    },
    "test-dependencies": {
        "direct": {},
        "indirect": {}
    }
}
